Intro to rtweet · mwk blog
…
## aggregate freq of tweets in one-hour intervals
agg <- ts_filter(ica17, by = "hours")

## view data
agg

## # A tibble: 212 x 3
##                   time  freq filter
##                 <dttm> <dbl>  <chr>
##  1 2017-05-16 20:00:00     2
##  2 2017-05-16 21:00:00     0
##  3 2017-05-16 22:00:00     0
##  4 2017-05-16 23:00:00     0
##  5 2017-05-17 00:00:00     1
##  6 2017-05-17 01:00:00     0
##  7 2017-05-17 02:00:00     0
##  8 2017-05-17 03:00:00     0
##  9 2017-05-17 04:00:00     0
## 10 2017-05-17 05:00:00     0
## # ... with 202 more rows
…
Tidy sentiment analysis

The syuzhet package makes sentiment analysis criminally easy.

## conduct sentiment analysis
sa <- syuzhet::get_nrc_sentiment(df$text_plain)

Within a few seconds, the analysis returns coded variables for several
categories of emotion and valence. A preview of the sentiment scores
returned by get_nrc_sentiment is provided below.

## view output
tibble::as_tibble(sa)

## # A tibble: 23,467 x 10
##    anger anticipation disgust  fear   joy sadness surprise trust
##    <dbl>        <dbl>   <dbl> <dbl> <dbl>   <dbl>    <dbl> <dbl>
##  1     1            0       0     1     0       1        0     0
##  2     0            0       0     0     0       0        0     1
##  3     0            0       0     0     0       1        1     0
##  4     0            0       0     0     0       1        1     0
##  5     0            0       0     0     0       1        1     0
##  6     0            0       0     0     0       0        0     0
##  7     0            1       0     0     0       0        0     1
##  8     0            0       0     0     0       0        0     0
##  9     0            0       0     0     0       1        1     0
## 10     0            0       1     0     0       1        0     0
## # ... with 23,457 more rows, and 2 more variables: negative <dbl>,
## #   positive <dbl>
…
The result is a tidy data paradise:

## view data
long_emotion_ts

## # A tibble: 250 x 5
##             created_at           query    sentiment      score     n
##                 <dttm>           <chr>        <chr>      <dbl> <int>
##  1 2017-05-23 08:30:00 CBO health care        anger 0.13043478    23
##  2 2017-05-23 08:30:00 CBO health care anticipation 1.30434783    23
##  3 2017-05-23 08:30:00 CBO health care      disgust 0.08695652    23
##  4 2017-05-23 08:30:00 CBO health care         fear 0.26086957    23
##  5 2017-05-23 08:30:00 CBO health care          joy 0.86956522    23
##  6 2017-05-23 08:30:00 CBO health care     negative 0.21739130    23
##  7 2017-05-23 08:30:00 CBO health care     positive 1.43478261    23
##  8 2017-05-23 08:30:00 CBO health care      sadness 0.08695652    23
##  9 2017-05-23 08:30:00 CBO health care     surprise 0.82608696    23
## 10 2017-05-23 08:30:00 CBO health care        trust 0.21739130    23
## # ... with 240 more rows
…
